<?xml version="1.0" encoding="UTF-8" standalone="no"?>
<!-- Generator: Adobe Illustrator 22.1.0, SVG Export Plug-In . SVG Version: 6.00 Build 0)  -->

<svg
   xmlns:dc="http://purl.org/dc/elements/1.1/"
   xmlns:cc="http://creativecommons.org/ns#"
   xmlns:rdf="http://www.w3.org/1999/02/22-rdf-syntax-ns#"
   xmlns:svg="http://www.w3.org/2000/svg"
   xmlns="http://www.w3.org/2000/svg"
   xmlns:sodipodi="http://sodipodi.sourceforge.net/DTD/sodipodi-0.dtd"
   xmlns:inkscape="http://www.inkscape.org/namespaces/inkscape"
   version="1.1"
   id="svg8"
   inkscape:version="0.92.3 (2405546, 2018-03-11)"
   sodipodi:docname="pixl.svg"
   x="0px"
   y="0px"
   viewBox="0 0 189.5183 189.51829"
   xml:space="preserve"
   width="189.5183"
   height="189.5183"><metadata
   id="metadata16"><rdf:RDF><cc:Work
       rdf:about=""><dc:format>image/svg+xml</dc:format><dc:type
         rdf:resource="http://purl.org/dc/dcmitype/StillImage" /><dc:title /></cc:Work></rdf:RDF></metadata><defs
   id="defs14" />
<style
   type="text/css"
   id="style2">
	.st0{fill:#FFFFFF;stroke:#000000;stroke-width:1.1;}
	.st1{fill:none;stroke:#000000;stroke-width:0.9;}
</style>
<sodipodi:namedview
   bordercolor="#666666"
   borderopacity="1.0"
   id="base"
   inkscape:current-layer="layer1"
   inkscape:cx="-179.25543"
   inkscape:cy="88.61127"
   inkscape:document-units="mm"
   inkscape:pageopacity="0.0"
   inkscape:pageshadow="2"
   inkscape:window-height="1017"
   inkscape:window-maximized="1"
   inkscape:window-width="1920"
   inkscape:window-x="-8"
   inkscape:window-y="32"
   inkscape:zoom="1.495124"
   pagecolor="#ffffff"
   showgrid="false"
   fit-margin-top="10"
   fit-margin-left="10"
   fit-margin-right="10"
   fit-margin-bottom="10">
	<inkscape:grid
   dotted="false"
   empspacing="1"
   id="grid4525"
   spacingx="4.2333333"
   spacingy="4.2333333"
   type="xygrid"
   originx="-196.99951"
   originy="-362.99057">
		</inkscape:grid>
</sodipodi:namedview>
<g
   id="layer1"
   inkscape:groupmode="layer"
   inkscape:label="Calque 1"
   transform="translate(-196.9995,-289.39114)">
	
		<rect
   id="rect10"
   x="230"
   y="322.39999"
   transform="matrix(0.8733,-0.4872,0.4872,0.8733,-150.1845,190.8127)"
   class="st0"
   width="123.5"
   height="123.5"
   style="fill:none;stroke:#000000;stroke-width:4.99995817;stroke-miterlimit:4;stroke-dasharray:none" />
	<path
   id="path4527"
   inkscape:connector-curvature="0"
   class="st1"
   d="m 267.7,468.1 c 0,-84 0,-84 0,-84 z"
   style="fill:none;stroke:#000000;stroke-width:4.99999999;stroke-miterlimit:4;stroke-dasharray:none" />
	<path
   id="path4531"
   inkscape:connector-curvature="0"
   class="st1"
   d="m 207.7,360.1 h 84 v 0 h -84 84 v 0"
   style="fill:none;stroke:#000000;stroke-width:4.99999999;stroke-miterlimit:4;stroke-dasharray:none" />
	<path
   id="path4533"
   inkscape:connector-curvature="0"
   class="st1"
   d="m 315.7,300.1 c 0,84 0,84 0,84"
   style="fill:none;stroke:#000000;stroke-width:4.99999999;stroke-miterlimit:4;stroke-dasharray:none" />
	<path
   id="path4535"
   inkscape:connector-curvature="0"
   class="st1"
   d="m 375.7,408.1 h -84 v 0"
   style="fill:none;stroke:#000000;stroke-width:4.99999999;stroke-miterlimit:4;stroke-dasharray:none" />
</g>
<g
   id="layer2"
   inkscape:groupmode="layer"
   inkscape:label="Calque 2"
   transform="translate(-196.9995,-289.39114)">
</g>
</svg>